[gd_scene load_steps=3 format=3 uid="uid://ls50aukrxv22"]

[ext_resource type="Script" path="res://common/hud/mode_scenes/dialog.gd" id="1_mm2cq"]
[ext_resource type="Texture2D" uid="uid://jnndwfkgiv0f" path="res://icon.svg" id="2_xicn0"]

[node name="Dialog" type="MarginContainer" node_paths=PackedStringArray("_dialog_text", "_dialog_avatar")]
anchors_preset = 15
anchor_right = 1.0
anchor_bottom = 1.0
grow_horizontal = 2
grow_vertical = 2
size_flags_horizontal = 3
size_flags_vertical = 3
script = ExtResource("1_mm2cq")
_dialog_text = NodePath("HBoxContainer/DialogText")
_dialog_avatar = NodePath("HBoxContainer/Avatar")

[node name="HBoxContainer" type="HBoxContainer" parent="."]
layout_mode = 2

[node name="Avatar" type="TextureRect" parent="HBoxContainer"]
layout_mode = 2
texture = ExtResource("2_xicn0")
stretch_mode = 4

[node name="VSeparator" type="VSeparator" parent="HBoxContainer"]
custom_minimum_size = Vector2(10, 0)
layout_mode = 2

[node name="DialogText" type="Label" parent="HBoxContainer"]
layout_mode = 2
size_flags_horizontal = 3
text = "<DialogTextPlaceholder>"
max_lines_visible = 2
